module webLinux

require (
	github.com/gin-contrib/sse v0.0.0-20170109093832-22d885f9ecc7 // indirect
	github.com/gin-gonic/gin v1.3.0
	github.com/golang/protobuf v1.2.0 // indirect
	github.com/jinzhu/gorm v1.9.1
	github.com/jinzhu/inflection v0.0.0-20180308033659-04140366298a // indirect
	github.com/mattn/go-isatty v0.0.4 // indirect
	github.com/mattn/go-sqlite3 v1.10.0 // indirect
	github.com/ugorji/go/codec v0.0.0-20181022190402-e5e69e061d4f // indirect
	gopkg.in/go-playground/validator.v8 v8.18.2 // indirect
	gopkg.in/yaml.v2 v2.2.1 // indirect
)
